Temporal Empirical Dynamic Modeling • tEDM
…
Air Pollution and Cardiovascular Health in Hong Kong

library(tEDM)

cvd = readr::read_csv(system.file("case/cvd.csv",package = "tEDM"))
## Rows: 1032 Columns: 5
## ── Column specification ────────────────────────────────────────────────────────
## Delimiter: ","
## dbl (5): cvd, rsp, no2, so2, o3
## 
## ℹ Use `spec()` to retrieve the full column specification for this data.
## ℹ Specify the column types or set `show_col_types = FALSE` to quiet this message.
cvd
## # A tibble: 1,032 × 5
##      cvd   rsp   no2   so2    o3
##    <dbl> <dbl> <dbl> <dbl> <dbl>
##  1   214  73.7  74.5 19.1  17.4 
##  2   203  77.6  80.9 18.8  39.4 
##  3   202  64.8  67.1 13.8  56.4 
##  4   182  68.8  74.7 30.8   5.6 
##  5   181  49.4  62.3 23.1   3.6 
##  6   129  67.4  63.6 17.4   6.73
##  7   104  30.3  44.4  8.11  9.6 
##  8   197 157.   48.6  8.53 24.8 
##  9   157  47.3  51    9.05  7.79
## 10   188  42.3  62.7 14.5  13.3 
## # ℹ 1,022 more rows
…
US County Carbon Emissions and Temperature Dynamics

library(tEDM)

carbon = readr::read_csv(system.file("case/carbon.csv.gz",package = "tEDM"))
## Rows: 113627 Columns: 4
## ── Column specification ────────────────────────────────────────────────────────
## Delimiter: ","
## dbl (4): year, fips, tem, carbon
## 
## ℹ Use `spec()` to retrieve the full column specification for this data.
## ℹ Specify the column types or set `show_col_types = FALSE` to quiet this message.
carbon
## # A tibble: 113,627 × 4
##     year  fips   tem     carbon
##    <dbl> <dbl> <dbl>      <dbl>
##  1  1981  1001  17.4 192607687.
##  2  1982  1001  18.4 187149414.
##  3  1983  1001  16.9 191584445.
##  4  1984  1001  17.8 199157579.
##  5  1985  1001  17.9 205207564.
##  6  1986  1001  18.5 218446030.
##  7  1987  1001  17.9 230169263.
##  8  1988  1001  17.4 240542755.
##  9  1989  1001  17.5 245939332.
## 10  1990  1001  19.1 247209558.
## # ℹ 113,617 more rows
…
res_carbon = res |> 
  dplyr::select(neighbors,
                carbon_tem = x_xmap_y_mean,
                tem_carbon = y_xmap_x_mean) |> 
  tidyr::pivot_longer(c(carbon_tem, tem_carbon), 
                      names_to = "variable", values_to = "value")
res_carbon
## # A tibble: 6,142 × 3
##    neighbors variable    value
##        <dbl> <chr>       <dbl>
##  1        20 carbon_tem 0.23  
##  2        20 tem_carbon 0.0388
##  3        20 carbon_tem 0.152 
##  4        20 tem_carbon 0.0425
##  5        20 carbon_tem 0.151 
##  6        20 tem_carbon 0.0438
##  7        20 carbon_tem 0.141 
##  8        20 tem_carbon 0.0438
##  9        20 carbon_tem 0.146 
## 10        20 tem_carbon 0.045 
## # ℹ 6,132 more rows
…
COVID-19 Spread Across Japanese Prefectures

library(tEDM)

covid = readr::read_csv(system.file("case/covid.csv",package = "tEDM"))
## Rows: 334 Columns: 47
## ── Column specification ────────────────────────────────────────────────────────
## Delimiter: ","
## dbl (47): Hokkaido, Aomori, Iwate, Miyagi, Akita, Yamagata, Fukushima, Ibara...
## 
## ℹ Use `spec()` to retrieve the full column specification for this data.
## ℹ Specify the column types or set `show_col_types = FALSE` to quiet this message.
covid
## # A tibble: 334 × 47
##    Hokkaido Aomori Iwate Miyagi Akita Yamagata Fukushima Ibaraki Tochigi Gunma
##       <dbl>  <dbl> <dbl>  <dbl> <dbl>    <dbl>     <dbl>   <dbl>   <dbl> <dbl>
##  1        0      0     0      0     0        0         0       0       0     0
##  2        0      0     0      0     0        0         0       0       0     0
##  3        0      0     0      0     0        0         0       0       0     0
##  4        0      0     0      0     0        0         0       0       0     0
##  5        0      0     0      0     0        0         0       0       0     0
##  6        0      0     0      0     0        0         0       0       0     0
##  7        0      0     0      0     0        0         0       0       0     0
##  8        0      0     0      0     0        0         0       0       0     0
##  9        0      0     0      0     0        0         0       0       0     0
## 10        0      0     0      0     0        0         0       0       0     0
## # ℹ 324 more rows
## # ℹ 37 more variables: Saitama <dbl>, Chiba <dbl>, Tokyo <dbl>, Kanagawa <dbl>,
## #   Niigata <dbl>, Toyama <dbl>, Ishikawa <dbl>, Fukui <dbl>, Yamanashi <dbl>,
## #   Nagano <dbl>, Gifu <dbl>, Shizuoka <dbl>, Aichi <dbl>, Mie <dbl>,
## #   Shiga <dbl>, Kyoto <dbl>, Osaka <dbl>, Hyogo <dbl>, Nara <dbl>,
## #   Wakayama <dbl>, Tottori <dbl>, Shimane <dbl>, Okayama <dbl>,
## #   Hiroshima <dbl>, Yamaguchi <dbl>, Tokushima <dbl>, Kagawa <dbl>, …
…
